{
  "paging": {
    "Sentences": {
      "finder": "all",
      "page": 1,
      "current": 10,
      "count": 1000,
      "perPage": 10,
      "start": 1,
      "end": 10,
      "prevPage": false,
      "nextPage": true,
      "pageCount": 100,
      "sort": null,
      "direction": null,
      "limit": null,
      "sortDefault": false,
      "directionDefault": false,
      "scope": null,
      "completeSort": []
    }
  },
  "results": [
    {
      "id": 3488321,
      "text": "仕事はどう？",
      "lang": "jpn",
      "correctness": 0,
      "script": null,
      "license": "CC BY 2.0 FR",
      "translations": [
        [
          {
            "id": 245394,
            "text": "How's work?",
            "lang": "eng",
            "correctness": 0,
            "script": null,
            "transcriptions": [],
            "audios": [
              {
                "id": 13906,
                "author": "CK",
                "attribution_url": "/en/user/profile/CK",
                "license": null
              }
            ],
            "isDirect": true,
            "lang_name": "English",
            "dir": "ltr",
            "lang_tag": "en"
          }
        ],
        [
          {
            "id": 569277,
            "text": "How are things at work?",
            "lang": "eng",
            "correctness": 0,
            "script": null,
            "transcriptions": [],
            "audios": [
              {
                "id": 608199,
                "external": null,
                "sentence_id": 569277,
                "user": { "username": "CK" },
                "author": "CK",
                "attribution_url": "/en/user/profile/CK",
                "license": null
              }
            ],
            "lang_name": "English",
            "dir": "ltr",
            "lang_tag": "en"
          },
          {
            "id": 871731,
            "text": "How's the work going?",
            "lang": "eng",
            "correctness": 0,
            "script": null,
            "transcriptions": [],
            "audios": [
              {
                "id": 46272,
                "external": null,
                "sentence_id": 871731,
                "user": { "username": "CK" },
                "author": "CK",
                "attribution_url": "/en/user/profile/CK",
                "license": null
              }
            ],
            "lang_name": "English",
            "dir": "ltr",
            "lang_tag": "en"
          },
          {
            "id": 3738105,
            "text": "How's everything at work?",
            "lang": "eng",
            "correctness": 0,
            "script": null,
            "transcriptions": [],
            "audios": [
              {
                "id": 229520,
                "external": null,
                "sentence_id": 3738105,
                "user": { "username": "CK" },
                "author": "CK",
                "attribution_url": "/en/user/profile/CK",
                "license": null
              }
            ],
            "lang_name": "English",
            "dir": "ltr",
            "lang_tag": "en"
          },
          {
            "id": 4134997,
            "text": "How's work going?",
            "lang": "eng",
            "correctness": 0,
            "script": null,
            "transcriptions": [],
            "audios": [
              {
                "id": 248882,
                "external": null,
                "sentence_id": 4134997,
                "user": { "username": "CK" },
                "author": "CK",
                "attribution_url": "/en/user/profile/CK",
                "license": null
              }
            ],
            "lang_name": "English",
            "dir": "ltr",
            "lang_tag": "en"
          }
        ]
      ],
      "transcriptions": [
        {
          "id": 1853756,
          "sentence_id": 3488321,
          "script": "Hrkt",
          "text": "[仕事|し|ごと]はどう？",
          "user_id": null,
          "needsReview": true,
          "modified": "2020-02-11T07:30:51+00:00",
          "user": null,
          "readonly": false,
          "type": "altscript",
          "html": "<ruby>仕<rp>（</rp><rt>し</rt><rp>）</rp></ruby><ruby>事<rp>（</rp><rt>ごと</rt><rp>）</rp></ruby>はどう？",
          "markup": null,
          "info_message": "This alternative script may contain errors because it has been generated by a piece of software that is not perfect."
        }
      ],
      "audios": [],
      "user": { "username": "arnab" },
      "lang_name": "Japanese",
      "dir": "ltr",
      "lang_tag": "ja",
      "is_favorite": null,
      "is_owned_by_current_user": false,
      "permissions": null,
      "max_visible_translations": 5,
      "current_user_review": null
    },
    {
      "id": 8613815,
      "text": "仕事に戻れ！",
      "lang": "jpn",
      "correctness": 0,
      "script": null,
      "license": "CC BY 2.0 FR",
      "translations": [
        [
          {
            "id": 2006521,
            "text": "Get back to work!",
            "lang": "eng",
            "correctness": 0,
            "script": null,
            "transcriptions": [],
            "audios": [
              {
                "id": 575684,
                "author": "CK",
                "attribution_url": "/en/user/profile/CK",
                "license": null
              }
            ],
            "isDirect": true,
            "lang_name": "English",
            "dir": "ltr",
            "lang_tag": "en"
          }
        ],
        [
          {
            "id": 1418642,
            "text": "Get back to work.",
            "lang": "eng",
            "correctness": 0,
            "script": null,
            "transcriptions": [],
            "audios": [
              {
                "id": 71822,
                "external": null,
                "sentence_id": 1418642,
                "user": { "username": "CK" },
                "author": "CK",
                "attribution_url": "/en/user/profile/CK",
                "license": null
              }
            ],
            "lang_name": "English",
            "dir": "ltr",
            "lang_tag": "en"
          }
        ]
      ],
      "transcriptions": [
        {
          "id": 1985664,
          "sentence_id": 8613815,
          "script": "Hrkt",
          "text": "[仕事|し|ごと]に[戻|もど]れ！",
          "user_id": 86121,
          "needsReview": false,
          "modified": "2020-03-15T06:39:41+00:00",
          "user": { "username": "small_snow" },
          "readonly": false,
          "type": "altscript",
          "html": "<ruby>仕<rp>（</rp><rt>し</rt><rp>）</rp></ruby><ruby>事<rp>（</rp><rt>ごと</rt><rp>）</rp></ruby>に<ruby>戻<rp>（</rp><rt>もど</rt><rp>）</rp></ruby>れ！",
          "markup": null,
          "info_message": "The furigana was last edited by small_snow on March 15, 2020 at 6:39:41 AM UTC."
        }
      ],
      "audios": [],
      "user": { "username": "small_snow" },
      "lang_name": "Japanese",
      "dir": "ltr",
      "lang_tag": "ja",
      "is_favorite": null,
      "is_owned_by_current_user": false,
      "permissions": null,
      "max_visible_translations": 5,
      "current_user_review": null
    },
    {
      "id": 8728265,
      "text": "仕事中なの？",
      "lang": "jpn",
      "correctness": 0,
      "script": null,
      "license": "CC BY 2.0 FR",
      "translations": [
        [
          {
            "id": 4401103,
            "text": "Are you at work?",
            "lang": "eng",
            "correctness": 0,
            "script": null,
            "transcriptions": [],
            "audios": [
              {
                "id": 251358,
                "author": "CK",
                "attribution_url": "/en/user/profile/CK",
                "license": null
              }
            ],
            "isDirect": true,
            "lang_name": "English",
            "dir": "ltr",
            "lang_tag": "en"
          }
        ],
        []
      ],
      "transcriptions": [
        {
          "id": 1989372,
          "sentence_id": 8728265,
          "script": "Hrkt",
          "text": "[仕事|し|ごと][中|ちゅう] なの？",
          "user_id": null,
          "needsReview": true,
          "modified": "2020-04-30T19:01:04+00:00",
          "user": null,
          "readonly": false,
          "type": "altscript",
          "html": "<ruby>仕<rp>（</rp><rt>し</rt><rp>）</rp></ruby><ruby>事<rp>（</rp><rt>ごと</rt><rp>）</rp></ruby><ruby>中<rp>（</rp><rt>ちゅう</rt><rp>）</rp></ruby>なの？",
          "markup": null,
          "info_message": "This alternative script may contain errors because it has been generated by a piece of software that is not perfect."
        }
      ],
      "audios": [],
      "user": { "username": "bunbuku" },
      "lang_name": "Japanese",
      "dir": "ltr",
      "lang_tag": "ja",
      "is_favorite": null,
      "is_owned_by_current_user": false,
      "permissions": null,
      "max_visible_translations": 5,
      "current_user_review": null
    },
    {
      "id": 8768245,
      "text": "まだ仕事中？",
      "lang": "jpn",
      "correctness": 0,
      "script": null,
      "license": "CC BY 2.0 FR",
      "translations": [
        [
          {
            "id": 3527136,
            "text": "Are you still at work?",
            "lang": "eng",
            "correctness": 0,
            "script": null,
            "transcriptions": [],
            "audios": [
              {
                "id": 216814,
                "author": "CK",
                "attribution_url": "/en/user/profile/CK",
                "license": null
              }
            ],
            "isDirect": true,
            "lang_name": "English",
            "dir": "ltr",
            "lang_tag": "en"
          }
        ],
        []
      ],
      "transcriptions": [
        {
          "id": 2111288,
          "sentence_id": 8768245,
          "script": "Hrkt",
          "text": "まだ[仕事|し|ごと][中|ちゅう]？",
          "user_id": null,
          "needsReview": true,
          "modified": "2020-05-17T11:28:09+00:00",
          "user": null,
          "readonly": false,
          "type": "altscript",
          "html": "まだ<ruby>仕<rp>（</rp><rt>し</rt><rp>）</rp></ruby><ruby>事<rp>（</rp><rt>ごと</rt><rp>）</rp></ruby><ruby>中<rp>（</rp><rt>ちゅう</rt><rp>）</rp></ruby>？",
          "markup": null,
          "info_message": "This alternative script may contain errors because it has been generated by a piece of software that is not perfect."
        }
      ],
      "audios": [],
      "user": { "username": "bunbuku" },
      "lang_name": "Japanese",
      "dir": "ltr",
      "lang_tag": "ja",
      "is_favorite": null,
      "is_owned_by_current_user": false,
      "permissions": null,
      "max_visible_translations": 5,
      "current_user_review": null
    },
    {
      "id": 169169,
      "text": "仕事どうなの？",
      "lang": "jpn",
      "correctness": 0,
      "script": null,
      "license": "CC BY 2.0 FR",
      "translations": [
        [
          {
            "id": 245318,
            "text": "How's your job?",
            "lang": "eng",
            "correctness": 0,
            "script": null,
            "transcriptions": [],
            "audios": [
              {
                "id": 13892,
                "author": "CK",
                "attribution_url": "/en/user/profile/CK",
                "license": null
              }
            ],
            "isDirect": true,
            "lang_name": "English",
            "dir": "ltr",
            "lang_tag": "en"
          }
        ],
        [
          {
            "id": 245394,
            "text": "How's work?",
            "lang": "eng",
            "correctness": 0,
            "script": null,
            "transcriptions": [],
            "audios": [
              {
                "id": 13906,
                "external": null,
                "sentence_id": 245394,
                "user": { "username": "CK" },
                "author": "CK",
                "attribution_url": "/en/user/profile/CK",
                "license": null
              }
            ],
            "lang_name": "English",
            "dir": "ltr",
            "lang_tag": "en"
          },
          {
            "id": 5107360,
            "text": "How is work?",
            "lang": "eng",
            "correctness": 0,
            "script": null,
            "transcriptions": [],
            "audios": [],
            "lang_name": "English",
            "dir": "ltr",
            "lang_tag": "en"
          }
        ]
      ],
      "transcriptions": [
        {
          "id": 1761078,
          "sentence_id": 169169,
          "script": "Hrkt",
          "text": "[仕事|し|ごと]どうなの？",
          "user_id": 5495,
          "needsReview": false,
          "modified": "2021-06-12T19:33:13+00:00",
          "user": { "username": "bunbuku" },
          "readonly": false,
          "type": "altscript",
          "html": "<ruby>仕<rp>（</rp><rt>し</rt><rp>）</rp></ruby><ruby>事<rp>（</rp><rt>ごと</rt><rp>）</rp></ruby>どうなの？",
          "markup": null,
          "info_message": "The furigana was last edited by bunbuku on June 12, 2021 at 7:33:13 PM UTC."
        }
      ],
      "audios": [],
      "user": { "username": "bunbuku" },
      "lang_name": "Japanese",
      "dir": "ltr",
      "lang_tag": "ja",
      "is_favorite": null,
      "is_owned_by_current_user": false,
      "permissions": null,
      "max_visible_translations": 5,
      "current_user_review": null
    },
    {
      "id": 216878,
      "text": "さあ仕事だ。",
      "lang": "jpn",
      "correctness": 0,
      "script": null,
      "license": "CC BY 2.0 FR",
      "translations": [
        [
          {
            "id": 54185,
            "text": "Let's get down to business.",
            "lang": "eng",
            "correctness": 0,
            "script": null,
            "transcriptions": [],
            "audios": [
              {
                "id": 8798,
                "author": "CK",
                "attribution_url": "/en/user/profile/CK",
                "license": null
              }
            ],
            "isDirect": true,
            "lang_name": "English",
            "dir": "ltr",
            "lang_tag": "en"
          }
        ],
        []
      ],
      "transcriptions": [
        {
          "id": 1806263,
          "sentence_id": 216878,
          "script": "Hrkt",
          "text": "さあ[仕事|し|ごと]だ。",
          "user_id": 100651,
          "needsReview": false,
          "modified": "2022-12-30T09:54:35+00:00",
          "user": { "username": "KK_kaku_" },
          "readonly": false,
          "type": "altscript",
          "html": "さあ<ruby>仕<rp>（</rp><rt>し</rt><rp>）</rp></ruby><ruby>事<rp>（</rp><rt>ごと</rt><rp>）</rp></ruby>だ。",
          "markup": null,
          "info_message": "The furigana was last edited by KK_kaku_ on December 30, 2022 at 9:54:35 AM UTC."
        }
      ],
      "audios": [],
      "user": { "username": "small_snow" },
      "lang_name": "Japanese",
      "dir": "ltr",
      "lang_tag": "ja",
      "is_favorite": null,
      "is_owned_by_current_user": false,
      "permissions": null,
      "max_visible_translations": 5,
      "current_user_review": null
    },
    {
      "id": 1046221,
      "text": "仕事中です。",
      "lang": "jpn",
      "correctness": 0,
      "script": null,
      "license": "CC BY 2.0 FR",
      "translations": [
        [
          {
            "id": 340708,
            "text": "I am working.",
            "lang": "eng",
            "correctness": 0,
            "script": null,
            "transcriptions": [],
            "audios": [
              {
                "id": 28420,
                "author": "CK",
                "attribution_url": "/en/user/profile/CK",
                "license": null
              }
            ],
            "isDirect": true,
            "lang_name": "English",
            "dir": "ltr",
            "lang_tag": "en"
          }
        ],
        [
          {
            "id": 1581080,
            "text": "I work.",
            "lang": "eng",
            "correctness": 0,
            "script": null,
            "transcriptions": [],
            "audios": [
              {
                "id": 663796,
                "external": null,
                "sentence_id": 1581080,
                "user": { "username": "CK" },
                "author": "CK",
                "attribution_url": "/en/user/profile/CK",
                "license": null
              }
            ],
            "lang_name": "English",
            "dir": "ltr",
            "lang_tag": "en"
          },
          {
            "id": 2111668,
            "text": "I'm working.",
            "lang": "eng",
            "correctness": 0,
            "script": null,
            "transcriptions": [],
            "audios": [
              {
                "id": 102849,
                "external": null,
                "sentence_id": 2111668,
                "user": { "username": "CK" },
                "author": "CK",
                "attribution_url": "/en/user/profile/CK",
                "license": null
              }
            ],
            "lang_name": "English",
            "dir": "ltr",
            "lang_tag": "en"
          }
        ]
      ],
      "transcriptions": [
        {
          "id": 1832938,
          "sentence_id": 1046221,
          "script": "Hrkt",
          "text": "[仕事|し|ごと][中|ちゅう]です。",
          "user_id": null,
          "needsReview": true,
          "modified": "2020-02-11T07:24:43+00:00",
          "user": null,
          "readonly": false,
          "type": "altscript",
          "html": "<ruby>仕<rp>（</rp><rt>し</rt><rp>）</rp></ruby><ruby>事<rp>（</rp><rt>ごと</rt><rp>）</rp></ruby><ruby>中<rp>（</rp><rt>ちゅう</rt><rp>）</rp></ruby>です。",
          "markup": null,
          "info_message": "This alternative script may contain errors because it has been generated by a piece of software that is not perfect."
        }
      ],
      "audios": [],
      "user": { "username": "bunbuku" },
      "lang_name": "Japanese",
      "dir": "ltr",
      "lang_tag": "ja",
      "is_favorite": null,
      "is_owned_by_current_user": false,
      "permissions": null,
      "max_visible_translations": 5,
      "current_user_review": null
    },
    {
      "id": 1634748,
      "text": "仕事は仕事だ！",
      "lang": "jpn",
      "correctness": 0,
      "script": null,
      "license": "CC BY 2.0 FR",
      "translations": [
        [
          {
            "id": 21110,
            "text": "Business is business.",
            "lang": "eng",
            "correctness": 0,
            "script": null,
            "transcriptions": [],
            "audios": [
              {
                "id": 3785,
                "author": "CK",
                "attribution_url": "/en/user/profile/CK",
                "license": null
              }
            ],
            "isDirect": true,
            "lang_name": "English",
            "dir": "ltr",
            "lang_tag": "en"
          },
          {
            "id": 1132159,
            "text": "Business is business!",
            "lang": "eng",
            "correctness": 0,
            "script": null,
            "transcriptions": [],
            "audios": [],
            "isDirect": true,
            "lang_name": "English",
            "dir": "ltr",
            "lang_tag": "en"
          }
        ],
        []
      ],
      "transcriptions": [
        {
          "id": 1840138,
          "sentence_id": 1634748,
          "script": "Hrkt",
          "text": "[仕事|し|ごと]は[仕事|し|ごと]だ！",
          "user_id": null,
          "needsReview": true,
          "modified": "2020-02-11T07:26:52+00:00",
          "user": null,
          "readonly": false,
          "type": "altscript",
          "html": "<ruby>仕<rp>（</rp><rt>し</rt><rp>）</rp></ruby><ruby>事<rp>（</rp><rt>ごと</rt><rp>）</rp></ruby>は<ruby>仕<rp>（</rp><rt>し</rt><rp>）</rp></ruby><ruby>事<rp>（</rp><rt>ごと</rt><rp>）</rp></ruby>だ！",
          "markup": null,
          "info_message": "This alternative script may contain errors because it has been generated by a piece of software that is not perfect."
        }
      ],
      "audios": [],
      "user": { "username": "ari_diary" },
      "lang_name": "Japanese",
      "dir": "ltr",
      "lang_tag": "ja",
      "is_favorite": null,
      "is_owned_by_current_user": false,
      "permissions": null,
      "max_visible_translations": 5,
      "current_user_review": null
    },
    {
      "id": 2684224,
      "text": "仕事熱心だね！",
      "lang": "jpn",
      "correctness": 0,
      "script": null,
      "license": "CC BY 2.0 FR",
      "translations": [
        [],
        [
          {
            "id": 1728576,
            "text": "You work hard!",
            "lang": "eng",
            "correctness": 0,
            "script": null,
            "transcriptions": [],
            "audios": [],
            "lang_name": "English",
            "dir": "ltr",
            "lang_tag": "en"
          },
          {
            "id": 8383994,
            "text": "You really are hardworking!",
            "lang": "eng",
            "correctness": 0,
            "script": null,
            "transcriptions": [],
            "audios": [],
            "lang_name": "English",
            "dir": "ltr",
            "lang_tag": "en"
          }
        ]
      ],
      "transcriptions": [
        {
          "id": 1848220,
          "sentence_id": 2684224,
          "script": "Hrkt",
          "text": "[仕事|し|ごと][熱心|ねっ|しん]だね！",
          "user_id": null,
          "needsReview": true,
          "modified": "2020-02-11T07:29:09+00:00",
          "user": null,
          "readonly": false,
          "type": "altscript",
          "html": "<ruby>仕<rp>（</rp><rt>し</rt><rp>）</rp></ruby><ruby>事<rp>（</rp><rt>ごと</rt><rp>）</rp></ruby><ruby>熱<rp>（</rp><rt>ねっ</rt><rp>）</rp></ruby><ruby>心<rp>（</rp><rt>しん</rt><rp>）</rp></ruby>だね！",
          "markup": null,
          "info_message": "This alternative script may contain errors because it has been generated by a piece of software that is not perfect."
        }
      ],
      "audios": [],
      "user": { "username": "cogas" },
      "lang_name": "Japanese",
      "dir": "ltr",
      "lang_tag": "ja",
      "is_favorite": null,
      "is_owned_by_current_user": false,
      "permissions": null,
      "max_visible_translations": 5,
      "current_user_review": null
    },
    {
      "id": 3491614,
      "text": "仕事にかかれ！",
      "lang": "jpn",
      "correctness": 0,
      "script": null,
      "license": "CC BY 2.0 FR",
      "translations": [
        [
          {
            "id": 2245518,
            "text": "Get to work!",
            "lang": "eng",
            "correctness": 0,
            "script": null,
            "transcriptions": [],
            "audios": [
              {
                "id": 113315,
                "author": "CK",
                "attribution_url": "/en/user/profile/CK",
                "license": null
              }
            ],
            "isDirect": true,
            "lang_name": "English",
            "dir": "ltr",
            "lang_tag": "en"
          }
        ],
        [
          {
            "id": 2649245,
            "text": "Get to work.",
            "lang": "eng",
            "correctness": 0,
            "script": null,
            "transcriptions": [],
            "audios": [
              {
                "id": 161436,
                "external": null,
                "sentence_id": 2649245,
                "user": { "username": "CK" },
                "author": "CK",
                "attribution_url": "/en/user/profile/CK",
                "license": null
              }
            ],
            "lang_name": "English",
            "dir": "ltr",
            "lang_tag": "en"
          }
        ]
      ],
      "transcriptions": [
        {
          "id": 1853841,
          "sentence_id": 3491614,
          "script": "Hrkt",
          "text": "[仕事|し|ごと]にかかれ！",
          "user_id": null,
          "needsReview": true,
          "modified": "2020-02-11T07:30:52+00:00",
          "user": null,
          "readonly": false,
          "type": "altscript",
          "html": "<ruby>仕<rp>（</rp><rt>し</rt><rp>）</rp></ruby><ruby>事<rp>（</rp><rt>ごと</rt><rp>）</rp></ruby>にかかれ！",
          "markup": null,
          "info_message": "This alternative script may contain errors because it has been generated by a piece of software that is not perfect."
        }
      ],
      "audios": [],
      "user": { "username": "arnab" },
      "lang_name": "Japanese",
      "dir": "ltr",
      "lang_tag": "ja",
      "is_favorite": null,
      "is_owned_by_current_user": false,
      "permissions": null,
      "max_visible_translations": 5,
      "current_user_review": null
    }
  ]
}
